Doc/Bachelorarbeit10/img/PicturesPlots/Fotodiodes/LaserMaximal/Steigend/WAVE/WMCD0005.PRN

ModelName,WJ324
FileVersion,1
Acquisition Time,2016/12/29,10:31:20
Time/div(second),500E-09
Delay(second),-1.74E-06
Delta(second),1E-09
Acquisition Mode,Normal
Trigger Address,760
CH1 Display,On
CH2 Display,On
CH3 Display,Off
CH4 Display,Off
CH1 Volt/div,500E-03
CH2 Volt/div,500E-03
CH3 Volt/div,500E-03
CH4 Volt/div,500E-03
CH1 Offset,-1.70E+00
CH2 Offset,-1.70E+00
CH3 Offset,-1.49E+00
CH4 Offset,1.51E+00
CH1 Coupling,DC1M
CH2 Coupling,DC1M
CH3 Coupling,DC1M
CH4 Coupling,DC1M
CH1 Bandwidth,20MHz
CH2 Bandwidth,20MHz
CH3 Bandwidth,Full
CH4 Bandwidth,Full
Points,5001
Ch1 V,Ch2 V,Ch3 V,Ch4 V
7.50E-02 -5.00E-02 0 0
7.50E-02 -3.43E-02 0 0
7.50E-02 -5.00E-02 0 0
7.50E-02 -3.43E-02 0 0
7.50E-02 -5.00E-02 0 0
7.50E-02 -3.43E-02 0 0
7.50E-02 -5.00E-02 0 0
7.50E-02 -3.43E-02 0 0
7.50E-02 -5.00E-02 0 0
7.50E-02 -5.00E-02 0 0
7.50E-02 -5.00E-02 0 0
7.50E-02 -5.00E-02 0 0
7.50E-02 -5.00E-02 0 0
7.50E-02 -3.43E-02 0 0
7.50E-02 -5.00E-02 0 0
7.50E-02 -3.43E-02 0 0
7.50E-02 -5.00E-02 0 0
7.50E-02 -3.43E-02 0 0
7.50E-02 -5.00E-02 0 0
7.50E-02 -3.43E-02 0 0
7.50E-02 -5.00E-02 0 0
7.50E-02 -3.43E-02 0 0
7.50E-02 -5.00E-02 0 0
7.50E-02 -3.43E-02 0 0
7.50E-02 -5.00E-02 0 0
9.06E-02 -3.43E-02 0 0
7.50E-02 -5.00E-02 0 0
7.50E-02 -5.00E-02 0 0
7.50E-02 -5.00E-02 0 0
7.50E-02 -5.00E-02 0 0
7.50E-02 -5.00E-02 0 0
9.06E-02 -5.00E-02 0 0
7.50E-02 -5.00E-02 0 0
7.50E-02 -3.43E-02 0 0
9.06E-02 -5.00E-02 0 0
7.50E-02 -3.43E-02 0 0
7.50E-02 -5.00E-02 0 0
7.50E-02 -3.43E-02 0 0
7.50E-02 -5.00E-02 0 0
7.50E-02 -3.43E-02 0 0
7.50E-02 -5.00E-02 0 0
7.50E-02 -3.43E-02 0 0
7.50E-02 -5.00E-02 0 0
7.50E-02 -3.43E-02 0 0
7.50E-02 -5.00E-02 0 0
7.50E-02 -3.43E-02 0 0
7.50E-02 -5.00E-02 0 0
7.50E-02 -3.43E-02 0 0
7.50E-02 -5.00E-02 0 0
7.50E-02 -3.43E-02 0 0
7.50E-02 -5.00E-02 0 0
7.50E-02 -3.43E-02 0 0
7.50E-02 -5.00E-02 0 0
7.50E-02 -3.43E-02 0 0
7.50E-02 -5.00E-02 0 0
7.50E-02 -3.43E-02 0 0
7.50E-02 -5.00E-02 0 0
7.50E-02 -3.43E-02 0 0
7.50E-02 -5.00E-02 0 0
7.50E-02 -3.43E-02 0 0
7.50E-02 -3.43E-02 0 0
9.06E-02 -3.43E-02 0 0
7.50E-02 -5.00E-02 0 0
7.50E-02 -3.43E-02 0 0
7.50E-02 -5.00E-02 0 0
7.50E-02 -3.43E-02 0 0
7.50E-02 -5.00E-02 0 0
7.50E-02 -3.43E-02 0 0
7.50E-02 -5.00E-02 0 0
7.50E-02 -3.43E-02 0 0
7.50E-02 -5.00E-02 0 0
7.50E-02 -3.43E-02 0 0
7.50E-02 -5.00E-02 0 0
7.50E-02 -3.43E-02 0 0
7.50E-02 -5.00E-02 0 0
7.50E-02 -3.43E-02 0 0
7.50E-02 -5.00E-02 0 0
7.50E-02 -3.43E-02 0 0
7.50E-02 -5.00E-02 0 0
7.50E-02 -3.43E-02 0 0
7.50E-02 -5.00E-02 0 0
7.50E-02 -5.00E-02 0 0
7.50E-02 -5.00E-02 0 0
7.50E-02 -3.43E-02 0 0
7.50E-02 -5.00E-02 0 0
7.50E-02 -3.43E-02 0 0
7.50E-02 -5.00E-02 0 0
7.50E-02 -3.43E-02 0 0
7.50E-02 -5.00E-02 0 0
7.50E-02 -3.43E-02 0 0
7.50E-02 -5.00E-02 0 0
7.50E-02 -3.43E-02 0 0
7.50E-02 -5.00E-02 0 0
7.50E-02 -3.43E-02 0 0
7.50E-02 -5.00E-02 0 0
7.50E-02 -3.43E-02 0 0
7.50E-02 -5.00E-02 0 0
7.50E-02 -5.00E-02 0 0
7.50E-02 -5.00E-02 0 0
7.50E-02 -5.00E-02 0 0
7.50E-02 -5.00E-02 0 0
7.50E-02 -5.00E-02 0 0
7.50E-02 -5.00E-02 0 0
7.50E-02 -5.00E-02 0 0
7.50E-02 -5.00E-02 0 0
7.50E-02 -5.00E-02 0 0
7.50E-02 -5.00E-02 0 0
7.50E-02 -5.00E-02 0 0
7.50E-02 -5.00E-02 0 0
7.50E-02 -5.00E-02 0 0
7.50E-02 -5.00E-02 0 0
7.50E-02 -5.00E-02 0 0
7.50E-02 -5.00E-02 0 0
7.50E-02 -5.00E-02 0 0
7.50E-02 -5.00E-02 0 0
7.50E-02 -3.43E-02 0 0
7.50E-02 -5.00E-02 0 0
7.50E-02 -3.43E-02 0 0
7.50E-02 -5.00E-02 0 0
7.50E-02 -3.43E-02 0 0
7.50E-02 -5.00E-02 0 0
7.50E-02 -3.43E-02 0 0
7.50E-02 -5.00E-02 0 0
7.50E-02 -3.43E-02 0 0
7.50E-02 -5.00E-02 0 0
7.50E-02 -3.43E-02 0 0
7.50E-02 -5.00E-02 0 0
7.50E-02 -5.00E-02 0 0
7.50E-02 -5.00E-02 0 0
7.50E-02 -5.00E-02 0 0
7.50E-02 -5.00E-02 0 0
7.50E-02 -5.00E-02 0 0
7.50E-02 -5.00E-02 0 0
7.50E-02 -3.43E-02 0 0
7.50E-02 -5.00E-02 0 0
7.50E-02 -5.00E-02 0 0
7.50E-02 -5.00E-02 0 0
7.50E-02 -5.00E-02 0 0
7.50E-02 -5.00E-02 0 0
7.50E-02 -3.43E-02 0 0
7.50E-02 -5.00E-02 0 0
7.50E-02 -3.43E-02 0 0
7.50E-02 -5.00E-02 0 0
7.50E-02 -3.43E-02 0 0
7.50E-02 -5.00E-02 0 0
7.50E-02 -3.43E-02 0 0
7.50E-02 -5.00E-02 0 0
7.50E-02 -3.43E-02 0 0
7.50E-02 -5.00E-02 0 0
7.50E-02 -3.43E-02 0 0
7.50E-02 -5.00E-02 0 0
7.50E-02 -3.43E-02 0 0
7.50E-02 -5.00E-02 0 0
7.50E-02 -3.43E-02 0 0
7.50E-02 -5.00E-02 0 0
7.50E-02 -3.43E-02 0 0
7.50E-02 -5.00E-02 0 0
7.50E-02 -3.43E-02 0 0
7.50E-02 -5.00E-02 0 0
7.50E-02 -3.43E-02 0 0
7.50E-02 -5.00E-02 0 0
7.50E-02 -3.43E-02 0 0
7.50E-02 -5.00E-02 0 0
7.50E-02 -5.00E-02 0 0
7.50E-02 -5.00E-02 0 0
7.50E-02 -3.43E-02 0 0
7.50E-02 -5.00E-02 0 0
7.50E-02 -3.43E-02 0 0
7.50E-02 -5.00E-02 0 0
7.50E-02 -3.43E-02 0 0
7.50E-02 -5.00E-02 0 0
7.50E-02 -3.43E-02 0 0
7.50E-02 -5.00E-02 0 0
7.50E-02 -3.43E-02 0 0
7.50E-02 -5.00E-02 0 0
7.50E-02 -3.43E-02 0 0
7.50E-02 -5.00E-02 0 0
7.50E-02 -3.43E-02 0 0
7.50E-02 -5.00E-02 0 0
7.50E-02 -3.43E-02 0 0
7.50E-02 -5.00E-02 0 0
7.50E-02 -3.43E-02 0 0
7.50E-02 -5.00E-02 0 0
7.50E-02 -3.43E-02 0 0
7.50E-02 -5.00E-02 0 0
7.50E-02 -3.43E-02 0 0
7.50E-02 -5.00E-02 0 0
7.50E-02 -3.43E-02 0 0
7.50E-02 -5.00E-02 0 0
7.50E-02 -3.43E-02 0 0
7.50E-02 -5.00E-02 0 0
7.50E-02 -3.43E-02 0 0
7.50E-02 -5.00E-02 0 0
7.50E-02 -3.43E-02 0 0
7.50E-02 -5.00E-02 0 0
7.50E-02 -3.43E-02 0 0
7.50E-02 -5.00E-02 0 0
7.50E-02 -3.43E-02 0 0
7.50E-02 -5.00E-02 0 0
7.50E-02 -3.43E-02 0 0
7.50E-02 -5.00E-02 0 0
7.50E-02 -3.43E-02 0 0
7.50E-02 -5.00E-02 0 0
7.50E-02 -3.43E-02 0 0
7.50E-02 -5.00E-02 0 0
7.50E-02 -3.43E-02 0 0
7.50E-02 -5.00E-02 0 0
7.50E-02 -3.43E-02 0 0
7.50E-02 -5.00E-02 0 0
9.06E-02 -3.43E-02 0 0
7.50E-02 -5.00E-02 0 0
7.50E-02 -3.43E-02 0 0
7.50E-02 -5.00E-02 0 0
7.50E-02 -3.43E-02 0 0
7.50E-02 -5.00E-02 0 0
7.50E-02 -3.43E-02 0 0
7.50E-02 -5.00E-02 0 0
7.50E-02 -3.43E-02 0 0
7.50E-02 -5.00E-02 0 0
7.50E-02 -3.43E-02 0 0
7.50E-02 -5.00E-02 0 0
7.50E-02 -3.43E-02 0 0
7.50E-02 -5.00E-02 0 0
7.50E-02 -3.43E-02 0 0
7.50E-02 -5.00E-02 0 0
7.50E-02 -3.43E-02 0 0
7.50E-02 -3.43E-02 0 0
7.50E-02 -3.43E-02 0 0
7.50E-02 -3.43E-02 0 0
7.50E-02 -3.43E-02 0 0
7.50E-02 -5.00E-02 0 0
7.50E-02 -3.43E-02 0 0
7.50E-02 -3.43E-02 0 0
7.50E-02 -3.43E-02 0 0
7.50E-02 -3.43E-02 0 0
7.50E-02 -3.43E-02 0 0
7.50E-02 -5.00E-02 0 0
7.50E-02 -3.43E-02 0 0
7.50E-02 -5.00E-02 0 0
7.50E-02 -3.43E-02 0 0
7.50E-02 -5.00E-02 0 0
7.50E-02 -3.43E-02 0 0
7.50E-02 -3.43E-02 0 0
7.50E-02 -3.43E-02 0 0
7.50E-02 -5.00E-02 0 0
7.50E-02 -3.43E-02 0 0
7.50E-02 -5.00E-02 0 0
7.50E-02 -5.00E-02 0 0
7.50E-02 -5.00E-02 0 0
7.50E-02 -3.43E-02 0 0
7.50E-02 -5.00E-02 0 0
7.50E-02 -5.00E-02 0 0
7.50E-02 -5.00E-02 0 0
7.50E-02 -5.00E-02 0 0
7.50E-02 -5.00E-02 0 0
7.50E-02 -3.43E-02 0 0
7.50E-02 -5.00E-02 0 0
7.50E-02 -3.43E-02 0 0
7.50E-02 -5.00E-02 0 0
7.50E-02 -3.43E-02 0 0
7.50E-02 -5.00E-02 0 0
7.50E-02 -3.43E-02 0 0
7.50E-02 -5.00E-02 0 0
7.50E-02 -3.43E-02 0 0
7.50E-02 -5.00E-02 0 0
7.50E-02 -3.43E-02 0 0
7.50E-02 -5.00E-02 0 0
7.50E-02 -5.00E-02 0 0
7.50E-02 -5.00E-02 0 0
7.50E-02 -5.00E-02 0 0
7.50E-02 -5.00E-02 0 0
7.50E-02 -3.43E-02 0 0
7.50E-02 -5.00E-02 0 0
7.50E-02 -3.43E-02 0 0
7.50E-02 -5.00E-02 0 0
7.50E-02 -5.00E-02 0 0
7.50E-02 -3.43E-02 0 0
7.50E-02 -3.43E-02 0 0
7.50E-02 -5.00E-02 0 0
7.50E-02 -3.43E-02 0 0
7.50E-02 -5.00E-02 0 0
7.50E-02 -3.43E-02 0 0
7.50E-02 -5.00E-02 0 0
9.06E-02 -3.43E-02 0 0
7.50E-02 -5.00E-02 0 0
7.50E-02 -3.43E-02 0 0
7.50E-02 -5.00E-02 0 0
7.50E-02 -3.43E-02 0 0
7.50E-02 -5.00E-02 0 0
7.50E-02 -3.43E-02 0 0
7.50E-02 -5.00E-02 0 0
7.50E-02 -3.43E-02 0 0
7.50E-02 -5.00E-02 0 0
7.50E-02 -5.00E-02 0 0
7.50E-02 -5.00E-02 0 0
7.50E-02 -3.43E-02 0 0
7.50E-02 -5.00E-02 0 0
7.50E-02 -5.00E-02 0 0
7.50E-02 -5.00E-02 0 0
7.50E-02 -5.00E-02 0 0
7.50E-02 -5.00E-02 0 0
7.50E-02 -3.43E-02 0 0
7.50E-02 -5.00E-02 0 0
7.50E-02 -3.43E-02 0 0
7.50E-02 -5.00E-02 0 0
7.50E-02 -5.00E-02 0 0
7.50E-02 -5.00E-02 0 0
7.50E-02 -3.43E-02 0 0
7.50E-02 -5.00E-02 0 0
7.50E-02 -3.43E-02 0 0
7.50E-02 -5.00E-02 0 0
7.50E-02 -3.43E-02 0 0
7.50E-02 -5.00E-02 0 0
7.50E-02 -3.43E-02 0 0
7.50E-02 -5.00E-02 0 0
7.50E-02 -3.43E-02 0 0
7.50E-02 -3.43E-02 0 0
7.50E-02 -3.43E-02 0 0
7.50E-02 -3.43E-02 0 0
7.50E-02 -3.43E-02 0 0
7.50E-02 -3.43E-02 0 0
7.50E-02 -3.43E-02 0 0
7.50E-02 -3.43E-02 0 0
7.50E-02 -3.43E-02 0 0
7.50E-02 -5.00E-02 0 0
7.50E-02 -3.43E-02 0 0
7.50E-02 -5.00E-02 0 0
7.50E-02 -3.43E-02 0 0
7.50E-02 -3.43E-02 0 0
7.50E-02 -3.43E-02 0 0
7.50E-02 -3.43E-02 0 0
7.50E-02 -3.43E-02 0 0
9.06E-02 -5.00E-02 0 0
7.50E-02 -3.43E-02 0 0
7.50E-02 -5.00E-02 0 0
7.50E-02 -3.43E-02 0 0
7.50E-02 -5.00E-02 0 0
9.06E-02 -3.43E-02 0 0
7.50E-02 -5.00E-02 0 0
7.50E-02 -3.43E-02 0 0
7.50E-02 -5.00E-02 0 0
7.50E-02 -3.43E-02 0 0
7.50E-02 -5.00E-02 0 0
7.50E-02 -3.43E-02 0 0
7.50E-02 -5.00E-02 0 0
7.50E-02 -3.43E-02 0 0
7.50E-02 -5.00E-02 0 0
7.50E-02 -3.43E-02 0 0
7.50E-02 -5.00E-02 0 0
7.50E-02 -3.43E-02 0 0
7.50E-02 -5.00E-02 0 0
7.50E-02 -3.43E-02 0 0
7.50E-02 -5.00E-02 0 0
7.50E-02 -5.00E-02 0 0
7.50E-02 -5.00E-02 0 0
7.50E-02 -3.43E-02 0 0
7.50E-02 -5.00E-02 0 0
7.50E-02 -3.43E-02 0 0
7.50E-02 -5.00E-02 0 0
7.50E-02 -3.43E-02 0 0
7.50E-02 -5.00E-02 0 0
7.50E-02 -3.43E-02 0 0
7.50E-02 -5.00E-02 0 0
7.50E-02 -3.43E-02 0 0
7.50E-02 -5.00E-02 0 0
7.50E-02 -3.43E-02 0 0
7.50E-02 -3.43E-02 0 0
7.50E-02 -3.43E-02 0 0
7.50E-02 -3.43E-02 0 0
7.50E-02 -3.43E-02 0 0
7.50E-02 -5.00E-02 0 0
7.50E-02 -3.43E-02 0 0
7.50E-02 -5.00E-02 0 0
7.50E-02 -3.43E-02 0 0
7.50E-02 -5.00E-02 0 0
7.50E-02 -3.43E-02 0 0
7.50E-02 -5.00E-02 0 0
7.50E-02 -3.43E-02 0 0
7.50E-02 -5.00E-02 0 0
9.06E-02 -3.43E-02 0 0
7.50E-02 -5.00E-02 0 0
7.50E-02 -3.43E-02 0 0
7.50E-02 -5.00E-02 0 0
7.50E-02 -3.43E-02 0 0
7.50E-02 -3.43E-02 0 0
7.50E-02 -3.43E-02 0 0
7.50E-02 -3.43E-02 0 0
7.50E-02 -3.43E-02 0 0
7.50E-02 -3.43E-02 0 0
7.50E-02 -3.43E-02 0 0
7.50E-02 -5.00E-02 0 0
7.50E-02 -3.43E-02 0 0
7.50E-02 -3.43E-02 0 0
7.50E-02 -3.43E-02 0 0
7.50E-02 -5.00E-02 0 0
7.50E-02 -3.43E-02 0 0
7.50E-02 -5.00E-02 0 0
7.50E-02 -3.43E-02 0 0
7.50E-02 -5.00E-02 0 0
7.50E-02 -3.43E-02 0 0
7.50E-02 -5.00E-02 0 0
7.50E-02 -3.43E-02 0 0
7.50E-02 -5.00E-02 0 0
7.50E-02 -3.43E-02 0 0
7.50E-02 -5.00E-02 0 0
7.50E-02 -3.43E-02 0 0
7.50E-02 -5.00E-02 0 0
7.50E-02 -3.43E-02 0 0
7.50E-02 -5.00E-02 0 0
7.50E-02 -3.43E-02 0 0
7.50E-02 -5.00E-02 0 0
7.50E-02 -3.43E-02 0 0
7.50E-02 -5.00E-02 0 0
7.50E-02 -3.43E-02 0 0
7.50E-02 -5.00E-02 0 0
7.50E-02 -3.43E-02 0 0
7.50E-02 -5.00E-02 0 0
7.50E-02 -3.43E-02 0 0
7.50E-02 -5.00E-02 0 0
7.50E-02 -5.00E-02 0 0
7.50E-02 -5.00E-02 0 0
7.50E-02 -3.43E-02 0 0
7.50E-02 -5.00E-02 0 0
7.50E-02 -3.43E-02 0 0
7.50E-02 -5.00E-02 0 0
7.50E-02 -3.43E-02 0 0
7.50E-02 -5.00E-02 0 0
7.50E-02 -3.43E-02 0 0
7.50E-02 -5.00E-02 0 0
7.50E-02 -3.43E-02 0 0
7.50E-02 -5.00E-02 0 0
7.50E-02 -3.43E-02 0 0
7.50E-02 -3.43E-02 0 0
7.50E-02 -3.43E-02 0 0
7.50E-02 -3.43E-02 0 0
7.50E-02 -3.43E-02 0 0
7.50E-02 -3.43E-02 0 0
7.50E-02 -3.43E-02 0 0
7.50E-02 -3.43E-02 0 0
7.50E-02 -3.43E-02 0 0
7.50E-02 -3.43E-02 0 0
7.50E-02 -3.43E-02 0 0
7.50E-02 -3.43E-02 0 0
7.50E-02 -3.43E-02 0 0
7.50E-02 -3.43E-02 0 0
7.50E-02 -3.43E-02 0 0
7.50E-02 -5.00E-02 0 0
7.50E-02 -3.43E-02 0 0
7.50E-02 -3.43E-02 0 0
7.50E-02 -3.43E-02 0 0
7.50E-02 -5.00E-02 0 0
7.50E-02 -3.43E-02 0 0
7.50E-02 -5.00E-02 0 0
7.50E-02 -3.43E-02 0 0
7.50E-02 -5.00E-02 0 0
7.50E-02 -3.43E-02 0 0
7.50E-02 -5.00E-02 0 0
7.50E-02 -3.43E-02 0 0
7.50E-02 -5.00E-02 0 0
7.50E-02 -3.43E-02 0 0
7.50E-02 -5.00E-02 0 0
7.50E-02 -5.00E-02 0 0
7.50E-02 -5.00E-02 0 0
7.50E-02 -3.43E-02 0 0
7.50E-02 -5.00E-02 0 0
7.50E-02 -3.43E-02 0 0
7.50E-02 -5.00E-02 0 0
7.50E-02 -5.00E-02 0 0
7.50E-02 -5.00E-02 0 0
7.50E-02 -5.00E-02 0 0
7.50E-02 -5.00E-02 0 0
7.50E-02 -5.00E-02 0 0
7.50E-02 -5.00E-02 0 0
7.50E-02 -5.00E-02 0 0
7.50E-02 -5.00E-02 0 0
7.50E-02 -5.00E-02 0 0
7.50E-02 -5.00E-02 0 0
7.50E-02 -3.43E-02 0 0
7.50E-02 -5.00E-02 0 0
7.50E-02 -3.43E-02 0 0
7.50E-02 -5.00E-02 0 0
7.50E-02 -3.43E-02 0 0
7.50E-02 -5.00E-02 0 0
7.50E-02 -3.43E-02 0 0
7.50E-02 -5.00E-02 0 0
7.50E-02 -3.43E-02 0 0
7.50E-02 -5.00E-02 0 0
7.50E-02 -3.43E-02 0 0
7.50E-02 -5.00E-02 0 0
7.50E-02 -3.43E-02 0 0
7.50E-02 -5.00E-02 0 0
7.50E-02 -3.43E-02 0 0
7.50E-02 -5.00E-02 0 0
7.50E-02 -5.00E-02 0 0
7.50E-02 -5.00E-02 0 0
7.50E-02 -3.43E-02 0 0
7.50E-02 -5.00E-02 0 0
7.50E-02 -3.43E-02 0 0
7.50E-02 -5.00E-02 0 0
7.50E-02 -3.43E-02 0 0
7.50E-02 -3.43E-02 0 0
7.50E-02 -3.43E-02 0 0
7.50E-02 -5.00E-02 0 0
7.50E-02 -3.43E-02 0 0
7.50E-02 -5.00E-02 0 0
7.50E-02 -3.43E-02 0 0
7.50E-02 -5.00E-02 0 0
7.50E-02 -3.43E-02 0 0
7.50E-02 -5.00E-02 0 0
7.50E-02 -3.43E-02 0 0
7.50E-02 -5.00E-02 0 0
7.50E-02 -3.43E-02 0 0
7.50E-02 -5.00E-02 0 0
7.50E-02 -3.43E-02 0 0
7.50E-02 -5.00E-02 0 0
7.50E-02 -3.43E-02 0 0
7.50E-02 -5.00E-02 0 0
7.50E-02 -3.43E-02 0 0
7.50E-02 -5.00E-02 0 0
7.50E-02 -3.43E-02 0 0
7.50E-02 -5.00E-02 0 0
7.50E-02 -3.43E-02 0 0
7.50E-02 -5.00E-02 0 0
7.50E-02 -3.43E-02 0 0
7.50E-02 -3.43E-02 0 0
7.50E-02 -3.43E-02 0 0
7.50E-02 -5.00E-02 0 0
7.50E-02 -3.43E-02 0 0
7.50E-02 -5.00E-02 0 0
7.50E-02 -5.00E-02 0 0
7.50E-02 -5.00E-02 0 0
7.50E-02 -5.00E-02 0 0
7.50E-02 -5.00E-02 0 0
7.50E-02 -5.00E-02 0 0
7.50E-02 -5.00E-02 0 0
7.50E-02 -5.00E-02 0 0
7.50E-02 -5.00E-02 0 0
7.50E-02 -5.00E-02 0 0
9.06E-02 -5.00E-02 0 0
7.50E-02 -3.43E-02 0 0
7.50E-02 -5.00E-02 0 0
7.50E-02 -5.00E-02 0 0
7.50E-02 -5.00E-02 0 0
7.50E-02 -3.43E-02 0 0
7.50E-02 -5.00E-02 0 0
7.50E-02 -3.43E-02 0 0
7.50E-02 -5.00E-02 0 0
7.50E-02 -3.43E-02 0 0
7.50E-02 -5.00E-02 0 0
7.50E-02 -3.43E-02 0 0
9.06E-02 -5.00E-02 0 0
7.50E-02 -3.43E-02 0 0
7.50E-02 -3.43E-02 0 0
7.50E-02 -3.43E-02 0 0
7.50E-02 -3.43E-02 0 0
7.50E-02 -3.43E-02 0 0
9.06E-02 -5.00E-02 0 0
7.50E-02 -3.43E-02 0 0
7.50E-02 -5.00E-02 0 0
7.50E-02 -3.43E-02 0 0
9.06E-02 -5.00E-02 0 0
7.50E-02 -3.43E-02 0 0
7.50E-02 -5.00E-02 0 0
7.50E-02 -3.43E-02 0 0
7.50E-02 -5.00E-02 0 0
7.50E-02 -3.43E-02 0 0
7.50E-02 -3.43E-02 0 0
7.50E-02 -3.43E-02 0 0
7.50E-02 -3.43E-02 0 0
7.50E-02 -3.43E-02 0 0
7.50E-02 -5.00E-02 0 0
7.50E-02 -3.43E-02 0 0
7.50E-02 -5.00E-02 0 0
7.50E-02 -3.43E-02 0 0
7.50E-02 -5.00E-02 0 0
7.50E-02 -3.43E-02 0 0
7.50E-02 -5.00E-02 0 0
7.50E-02 -3.43E-02 0 0
7.50E-02 -5.00E-02 0 0
7.50E-02 -3.43E-02 0 0
7.50E-02 -5.00E-02 0 0
7.50E-02 -3.43E-02 0 0
7.50E-02 -5.00E-02 0 0
7.50E-02 -3.43E-02 0 0
7.50E-02 -5.00E-02 0 0
7.50E-02 -5.00E-02 0 0
7.50E-02 -5.00E-02 0 0
7.50E-02 -5.00E-02 0 0
7.50E-02 -5.00E-02 0 0
7.50E-02 -3.43E-02 0 0
7.50E-02 -5.00E-02 0 0
7.50E-02 -3.43E-02 0 0
7.50E-02 -5.00E-02 0 0
7.50E-02 -3.43E-02 0 0
7.50E-02 -5.00E-02 0 0
7.50E-02 -3.43E-02 0 0
7.50E-02 -5.00E-02 0 0
7.50E-02 -3.43E-02 0 0
7.50E-02 -3.43E-02 0 0
7.50E-02 -3.43E-02 0 0
7.50E-02 -5.00E-02 0 0
7.50E-02 -3.43E-02 0 0
7.50E-02 -5.00E-02 0 0
7.50E-02 -3.43E-02 0 0
7.50E-02 -5.00E-02 0 0
7.50E-02 -3.43E-02 0 0
7.50E-02 -5.00E-02 0 0
7.50E-02 -3.43E-02 0 0
7.50E-02 -5.00E-02 0 0
7.50E-02 -3.43E-02 0 0
7.50E-02 -3.43E-02 0 0
7.50E-02 -3.43E-02 0 0
7.50E-02 -5.00E-02 0 0
7.50E-02 -3.43E-02 0 0
7.50E-02 -5.00E-02 0 0
7.50E-02 -3.43E-02 0 0
7.50E-02 -5.00E-02 0 0
7.50E-02 -3.43E-02 0 0
7.50E-02 -5.00E-02 0 0
7.50E-02 -3.43E-02 0 0
7.50E-02 -5.00E-02 0 0
7.50E-02 -3.43E-02 0 0
7.50E-02 -5.00E-02 0 0
7.50E-02 -3.43E-02 0 0
7.50E-02 -5.00E-02 0 0
7.50E-02 -3.43E-02 0 0
7.50E-02 -5.00E-02 0 0
7.50E-02 -3.43E-02 0 0
7.50E-02 -5.00E-02 0 0
7.50E-02 -3.43E-02 0 0
7.50E-02 -5.00E-02 0 0
7.50E-02 -3.43E-02 0 0
7.50E-02 -5.00E-02 0 0
7.50E-02 -3.43E-02 0 0
7.50E-02 -5.00E-02 0 0
7.50E-02 -3.43E-02 0 0
7.50E-02 -3.43E-02 0 0
7.50E-02 -3.43E-02 0 0
7.50E-02 -3.43E-02 0 0
7.50E-02 -3.43E-02 0 0
7.50E-02 -3.43E-02 0 0
7.50E-02 -3.43E-02 0 0
7.50E-02 -5.00E-02 0 0
7.50E-02 -3.43E-02 0 0
7.50E-02 -5.00E-02 0 0
7.50E-02 -3.43E-02 0 0
7.50E-02 -5.00E-02 0 0
7.50E-02 -3.43E-02 0 0
7.50E-02 -5.00E-02 0 0
7.50E-02 -3.43E-02 0 0
7.50E-02 -5.00E-02 0 0
7.50E-02 -3.43E-02 0 0
7.50E-02 -5.00E-02 0 0
7.50E-02 -3.43E-02 0 0
7.50E-02 -5.00E-02 0 0
7.50E-02 -3.43E-02 0 0
7.50E-02 -5.00E-02 0 0
7.50E-02 -3.43E-02 0 0
7.50E-02 -5.00E-02 0 0
7.50E-02 -3.43E-02 0 0
7.50E-02 -5.00E-02 0 0
7.50E-02 -3.43E-02 0 0
7.50E-02 -5.00E-02 0 0
7.50E-02 -3.43E-02 0 0
7.50E-02 -5.00E-02 0 0
7.50E-02 -3.43E-02 0 0
7.50E-02 -5.00E-02 0 0
7.50E-02 -3.43E-02 0 0
7.50E-02 -5.00E-02 0 0
7.50E-02 -3.43E-02 0 0
7.50E-02 -5.00E-02 0 0
7.50E-02 -5.00E-02 0 0
7.50E-02 -5.00E-02 0 0
7.50E-02 -3.43E-02 0 0
7.50E-02 -5.00E-02 0 0
7.50E-02 -3.43E-02 0 0
7.50E-02 -5.00E-02 0 0
7.50E-02 -3.43E-02 0 0
9.06E-02 -5.00E-02 0 0
7.50E-02 -3.43E-02 0 0
7.50E-02 -5.00E-02 0 0
7.50E-02 -3.43E-02 0 0
7.50E-02 -5.00E-02 0 0
7.50E-02 -3.43E-02 0 0
7.50E-02 -5.00E-02 0 0
7.50E-02 -3.43E-02 0 0
7.50E-02 -5.00E-02 0 0
7.50E-02 -3.43E-02 0 0
7.50E-02 -5.00E-02 0 0
7.50E-02 -3.43E-02 0 0
7.50E-02 -5.00E-02 0 0
7.50E-02 -3.43E-02 0 0
7.50E-02 -5.00E-02 0 0
7.50E-02 -3.43E-02 0 0
7.50E-02 -5.00E-02 0 0
7.50E-02 -3.43E-02 0 0
7.50E-02 -5.00E-02 0 0
7.50E-02 -3.43E-02 0 0
7.50E-02 -5.00E-02 0 0
7.50E-02 -3.43E-02 0 0
7.50E-02 -5.00E-02 0 0
7.50E-02 -3.43E-02 0 0
7.50E-02 -3.43E-02 0 0
7.50E-02 -3.43E-02 0 0
7.50E-02 -5.00E-02 0 0
7.50E-02 -3.43E-02 0 0
7.50E-02 -5.00E-02 0 0
7.50E-02 -3.43E-02 0 0
7.50E-02 -3.43E-02 0 0
7.50E-02 -3.43E-02 0 0
7.50E-02 -3.43E-02 0 0
7.50E-02 -3.43E-02 0 0
7.50E-02 -3.43E-02 0 0
7.50E-02 -3.43E-02 0 0
7.50E-02 -5.00E-02 0 0
7.50E-02 -3.43E-02 0 0
7.50E-02 -3.43E-02 0 0
7.50E-02 -3.43E-02 0 0
7.50E-02 -5.00E-02 0 0
7.50E-02 -3.43E-02 0 0
7.50E-02 -5.00E-02 0 0
7.50E-02 -3.43E-02 0 0
7.50E-02 -5.00E-02 0 0
7.50E-02 -3.43E-02 0 0
7.50E-02 -5.00E-02 0 0
7.50E-02 -3.43E-02 0 0
7.50E-02 -5.00E-02 0 0
7.50E-02 -3.43E-02 0 0
7.50E-02 -5.00E-02 0 0
7.50E-02 -3.43E-02 0 0
7.50E-02 -5.00E-02 0 0
7.50E-02 -5.00E-02 0 0
7.50E-02 -5.00E-02 0 0
7.50E-02 -3.43E-02 0 0
7.50E-02 -5.00E-02 0 0
7.50E-02 -3.43E-02 0 0
7.50E-02 -5.00E-02 0 0
7.50E-02 -3.43E-02 0 0
9.06E-02 -5.00E-02 0 0
7.50E-02 -3.43E-02 0 0
7.50E-02 -5.00E-02 0 0
7.50E-02 -3.43E-02 0 0
7.50E-02 -5.00E-02 0 0
7.50E-02 -3.43E-02 0 0
7.50E-02 -5.00E-02 0 0
7.50E-02 -5.00E-02 0 0
7.50E-02 -5.00E-02 0 0
7.50E-02 -3.43E-02 0 0
7.50E-02 -5.00E-02 0 0
7.50E-02 -3.43E-02 0 0
7.50E-02 -5.00E-02 0 0
7.50E-02 -3.43E-02 0 0
7.50E-02 -3.43E-02 0 0
7.50E-02 -3.43E-02 0 0
7.50E-02 -5.00E-02 0 0
7.50E-02 -3.43E-02 0 0
7.50E-02 -3.43E-02 0 0
7.50E-02 -3.43E-02 0 0
7.50E-02 -3.43E-02 0 0
7.50E-02 9.06E-02 0 0
7.50E-02 3.09E-01 0 0
4.37E-02 5.43E-01 0 0
1.25E-02 8.71E-01 0 0
-3.12E-03 1.16E+00 0 0
-1.87E-02 1.43E+00 0 0
-3.12E-03 1.65E+00 0 0
-3.12E-03 1.84E+00 0 0
2.81E-02 2.01E+00 0 0
5.93E-02 2.16E+00 0 0
5.93E-02 2.30E+00 0 0
5.93E-02 2.43E+00 0 0
5.93E-02 2.52E+00 0 0
5.93E-02 2.60E+00 0 0
4.37E-02 2.71E+00 0 0
2.81E-02 2.80E+00 0 0
-3.12E-03 2.90E+00 0 0
-1.87E-02 3.01E+00 0 0
-5.00E-02 3.12E+00 0 0
-5.00E-02 3.20E+00 0 0
-5.00E-02 3.27E+00 0 0
-3.43E-02 3.32E+00 0 0
-3.12E-03 3.34E+00 0 0
2.81E-02 3.30E+00 0 0
4.37E-02 3.30E+00 0 0
5.93E-02 3.29E+00 0 0
7.50E-02 3.27E+00 0 0
9.06E-02 3.26E+00 0 0
1.06E-01 3.27E+00 0 0
1.37E-01 3.27E+00 0 0
1.53E-01 3.29E+00 0 0
1.68E-01 3.29E+00 0 0
1.68E-01 3.32E+00 0 0
1.84E-01 3.34E+00 0 0
1.68E-01 3.35E+00 0 0
1.68E-01 3.38E+00 0 0
1.53E-01 3.40E+00 0 0
1.53E-01 3.43E+00 0 0
1.21E-01 3.43E+00 0 0
1.21E-01 3.43E+00 0 0
1.21E-01 3.45E+00 0 0
1.06E-01 3.45E+00 0 0
1.06E-01 3.43E+00 0 0
9.06E-02 3.41E+00 0 0
9.06E-02 3.38E+00 0 0
9.06E-02 3.35E+00 0 0
9.06E-02 3.34E+00 0 0
7.50E-02 3.30E+00 0 0
9.06E-02 3.27E+00 0 0
9.06E-02 3.24E+00 0 0
1.06E-01 3.20E+00 0 0
1.21E-01 3.18E+00 0 0
1.21E-01 3.15E+00 0 0
1.21E-01 3.13E+00 0 0
1.21E-01 3.10E+00 0 0
1.21E-01 3.09E+00 0 0
1.21E-01 3.07E+00 0 0
1.21E-01 3.05E+00 0 0
1.21E-01 3.04E+00 0 0
1.06E-01 3.02E+00 0 0
1.06E-01 3.01E+00 0 0
9.06E-02 3.02E+00 0 0
9.06E-02 3.01E+00 0 0
5.93E-02 3.01E+00 0 0
4.37E-02 3.01E+00 0 0
4.37E-02 3.01E+00 0 0
4.37E-02 2.99E+00 0 0
4.37E-02 2.99E+00 0 0
4.37E-02 2.98E+00 0 0
2.81E-02 2.96E+00 0 0
2.81E-02 2.95E+00 0 0
2.81E-02 2.93E+00 0 0
2.81E-02 2.91E+00 0 0
4.37E-02 2.91E+00 0 0
4.37E-02 2.90E+00 0 0
4.37E-02 2.88E+00 0 0
4.37E-02 2.88E+00 0 0
4.37E-02 2.88E+00 0 0
5.93E-02 2.88E+00 0 0
4.37E-02 2.88E+00 0 0
5.93E-02 2.90E+00 0 0
5.93E-02 2.91E+00 0 0
5.93E-02 2.93E+00 0 0
5.93E-02 2.96E+00 0 0
5.93E-02 2.99E+00 0 0
7.50E-02 3.02E+00 0 0
7.50E-02 3.05E+00 0 0
7.50E-02 3.09E+00 0 0
